[
{
    "model": "core.speaker",
    "pk": 1,
    "fields": {
        "name": "Grace Hopper",
        "slug": "grace-hopper",
        "photo": "http://hbn.link/hopper-pic",
        "website": "http://hbn.link/hopper-site",
        "description": "Programadora e Almirante. \r\nInventora do compilador, criadora da linguagem de programa\u00e7\u00e3o Flow-Matic serviu de base para\r\na linguagem COBOL permitindo a populariza\u00e7\u00e3o das aplica\u00e7\u00f5es comerciais."
    }
},
{
    "model": "core.speaker",
    "pk": 2,
    "fields": {
        "name": "Alan Turing",
        "slug": "alan-turing",
        "photo": "http://hbn.link/turing-pic",
        "website": "http://hbn.link/turing-site",
        "description": "Matem\u00e1tico e decifrador de c\u00f3digos.\r\nInventou o computador moderno, formalizou matematicamente o que \u00e9 um algoritmo e de quebra salvou o mundo como conhecemos ao destro\u00e7ar a criptografia nazista."
    }
}
]
